solid OpenSCAD_Model
  facet normal 0 1 -0
    outer loop
      vertex 3.25 7 0
      vertex -3.25 7 9.5
      vertex 3.25 7 9.5
    endloop
  endfacet
  facet normal 0 1 0
    outer loop
      vertex -3.25 7 9.5
      vertex 3.25 7 0
      vertex -3.25 7 0
    endloop
  endfacet
  facet normal -0 0 1
    outer loop
      vertex -3.25 7 9.5
      vertex 3.25 -7 9.5
      vertex 3.25 7 9.5
    endloop
  endfacet
  facet normal 0 0 1
    outer loop
      vertex 3.25 -7 9.5
      vertex -3.25 7 9.5
      vertex -3.25 -7 9.5
    endloop
  endfacet
  facet normal 0 -1 0
    outer loop
      vertex -3.25 -7 0
      vertex 3.25 -7 9.5
      vertex -3.25 -7 9.5
    endloop
  endfacet
  facet normal 0 -1 -0
    outer loop
      vertex 3.25 -7 9.5
      vertex -3.25 -7 0
      vertex 3.25 -7 0
    endloop
  endfacet
  facet normal 0 0 -1
    outer loop
      vertex -3.25 -7 0
      vertex 3.25 7 0
      vertex 3.25 -7 0
    endloop
  endfacet
  facet normal -0 0 -1
    outer loop
      vertex 3.25 7 0
      vertex -3.25 -7 0
      vertex -3.25 7 0
    endloop
  endfacet
  facet normal -1 0 0
    outer loop
      vertex -3.25 4 5
      vertex -3.25 7 0
      vertex -3.25 4 1.5
    endloop
  endfacet
  facet normal -1 0 0
    outer loop
      vertex -3.25 7 0
      vertex -3.25 -4 1.5
      vertex -3.25 4 1.5
    endloop
  endfacet
  facet normal -1 -0 0
    outer loop
      vertex -3.25 -4 1.5
      vertex -3.25 -7 0
      vertex -3.25 -4 5
    endloop
  endfacet
  facet normal -1 0 0
    outer loop
      vertex -3.25 -7 0
      vertex -3.25 -4 1.5
      vertex -3.25 7 0
    endloop
  endfacet
  facet normal -1 0 0
    outer loop
      vertex -3.25 7 0
      vertex -3.25 4 5
      vertex -3.25 7 9.5
    endloop
  endfacet
  facet normal -1 0 0
    outer loop
      vertex -3.25 -4 5
      vertex -3.25 7 9.5
      vertex -3.25 4 5
    endloop
  endfacet
  facet normal -1 0 0
    outer loop
      vertex -3.25 -4 5
      vertex -3.25 -7 9.5
      vertex -3.25 7 9.5
    endloop
  endfacet
  facet normal -1 0 0
    outer loop
      vertex -3.25 -7 9.5
      vertex -3.25 -4 5
      vertex -3.25 -7 0
    endloop
  endfacet
  facet normal 1 -0 0
    outer loop
      vertex 3.25 -7 9.5
      vertex 3.25 7 0
      vertex 3.25 7 9.5
    endloop
  endfacet
  facet normal 1 0 0
    outer loop
      vertex 3.25 7 0
      vertex 3.25 -7 9.5
      vertex 3.25 -7 0
    endloop
  endfacet
  facet normal 0 1 -0
    outer loop
      vertex -3.25 4 1.5
      vertex -9.25 4 5
      vertex -3.25 4 5
    endloop
  endfacet
  facet normal 0 1 0
    outer loop
      vertex -9.25 4 5
      vertex -3.25 4 1.5
      vertex -9.25 4 1.5
    endloop
  endfacet
  facet normal -0 0 1
    outer loop
      vertex -9.25 4 5
      vertex -3.25 -4 5
      vertex -3.25 4 5
    endloop
  endfacet
  facet normal 0 0 1
    outer loop
      vertex -3.25 -4 5
      vertex -9.25 4 5
      vertex -9.25 -4 5
    endloop
  endfacet
  facet normal 0 -1 0
    outer loop
      vertex -9.25 -4 1.5
      vertex -3.25 -4 5
      vertex -9.25 -4 5
    endloop
  endfacet
  facet normal 0 -1 -0
    outer loop
      vertex -3.25 -4 5
      vertex -9.25 -4 1.5
      vertex -3.25 -4 1.5
    endloop
  endfacet
  facet normal 0 0 -1
    outer loop
      vertex -9.25 -4 1.5
      vertex -3.25 4 1.5
      vertex -3.25 -4 1.5
    endloop
  endfacet
  facet normal -0 0 -1
    outer loop
      vertex -3.25 4 1.5
      vertex -9.25 -4 1.5
      vertex -9.25 4 1.5
    endloop
  endfacet
  facet normal -1 0 0
    outer loop
      vertex -9.25 -4 1.5
      vertex -9.25 4 5
      vertex -9.25 4 1.5
    endloop
  endfacet
  facet normal -1 -0 0
    outer loop
      vertex -9.25 4 5
      vertex -9.25 -4 1.5
      vertex -9.25 -4 5
    endloop
  endfacet
endsolid OpenSCAD_Model
